[
  {
    "Abia": [
      "Aba North",
      "Aba South",
      "Arochukwu",
      "Bende",
      "Ikwuano",
      "Isiala Ngwa North",
      "Isiala Ngwa South",
      "Isuikwuato",
      "Obi Ngwa",
      "Ohafia",
      "Osisioma Ngwa",
      "Ugwunagbo",
      "Ukwa East",
      "Ukwa West",
      "Umuahia North",
      "Umuahia South",
      "Umu Nneochi"
    ]
  },
  {
    "Adamawa": [
      "Demsa",
      "Fufore",
      "Ganye",
      "Girei",
      "Gombi",
      "Guyuk",
      "Hong",
      "Jada",
      "Lamurde",
      "Madagali",
      "Maiha",
      "Mayo-Belwa",
      "Michika",
      "Mubi North",
      "Mubi South ",
      "Numan",
      "Shelleng",
      "Song",
      "Toungo",
      "Yola North",
      "Yola South"
    ]
  },
  {
    "Akwa Ibom": [
      "Abak",
      "Eastern Obolo",
      "Eket",
      "Esit-Eket",
      "Etim Ekpo",
      "Etinam",
      "Ibeno",
      "Ibesikpo-Asutan",
      "Ibiono-Ibom",
      "ika",
      "ikono",
      "Ikot Abasi",
      "Ikot Ekpene",
      "Ini",
      "Itu",
      "Mkpat-Enin",
      "Nsit-Atai",
      "Nsit-Ibom",
      "Nsit-Ubium",
      "Obot-Akara",
      "Okobo",
      "Onna",
      "Oruk Anam",
      "Ukanafun",
      "Udung-Uko",
      "Uruan",
      "Urue-Offong/Oruko",
      "Uyoti"
    ]
  },
  {
    "Anambra": [
      "Aguata",
      "Awka North",
      "Awka South",
      "Anambra East",
      "Anambra West",
      "Anaocha",
      "Ayamelum",
      "Dunukofia",
      "Ekwusigo",
      "Idemili North",
      "Idemili South",
      "Ihiala",
      "Njikoka",
      "Nnewi North",
      "Nnewi South",
      "Ogbaru",
      "Onitsha North",
      "Onitsha South",
      "Orumba North",
      "Orumba South",
      "Oyi"
    ]
  },
  {
    "Bauchi": [
      "Bauchi",
      "Tafawa Balewa",
      "Dass",
      "Toro",
      "Bogoro",
      "Ningi",
      "Warji",
      "Ganjuwa",
      "Kirfi",
      "Alkaleri",
      "Darazo",
      "Misau",
      "Giade",
      "Shira",
      "Jama'are",
      "Katagum",
      "Itas/Gadau",
      "Zaki",
      "Gamawa",
      "Damban"
    ]
  },
  {
    "Bayelsa": [
      "Bauchi",
      "Ekeremor",
      "Kolokuma/Opokuma",
      "Nembe",
      "Ogbia",
      "Sagbama",
      "Southern Ijaw",
      "Yenagoa"
    ]
  },
  {
    "Benue": [
      "Ado",
      "Agatu",
      "Apa",
      "Buruku",
      "Gboko",
      "Guma",
      "Gwer East",
      "Gwer West",
      "Katsina-Ala",
      "Konshisha",
      "Kwande",
      "Logo",
      "Makurdi",
      "Obi",
      "Ogbadibo",
      "Ohimini",
      "Oju",
      "Okpokwu",
      "Otukpo",
      "Tarka",
      "Ukum",
      "Ushongo",
      "Vandeikya"
    ]
  },
  {
    "Borno": [
      "Maiduguri",
      "Ngala",
      "Kala/Balge",
      "Mafa",
      "Konduga",
      "Bama",
      "Jere",
      "Dikwa",
      "Bayo",
      "Biu",
      "Askira/Uba",
      "Chibok",
      "Damboa",
      "Gwoza",
      "Hawul",
      "Kwaya Kusar",
      "Shani"
    ]
  },
  {
    "Cross River": [
      "Abi",
      "Akamkpa",
      "Akpabuyo",
      "Bakassi",
      "Bekwarra",
      "Biase",
      "Boki",
      "Calabar Municipal",
      "Calabar South",
      "Etung",
      "Ikom",
      "Obanliku",
      "Obanliku",
      "Obubra",
      "Obudu",
      "Odukpani",
      "Ogoja",
      "Yakuur",
      "Yala"
    ]
  },
  {
    "Delta": [
      "Ethiope East",
      "Ethiope West",
      "Okpe",
      "Sapele",
      "Udu",
      "Ughelli North",
      "Ughelli South",
      "Uvwie",
      "Aniocha North",
      "Aniocha South",
      "Ika North East",
      "Ika South",
      "Ndokwa East",
      "Ndokwa West",
      "Oshimili North",
      "Oshimili South",
      "Ukwuani",
      "Bomadi",
      "Burutu",
      "Isoko North",
      "Isoko South",
      "Patani",
      "Warri North",
      "Warri South",
      "Warri South West"
    ]
  },
  {
    "Ebonyi": [
      "Abakaliki",
      "Afikpo North",
      "Afikpo South ",
      "Ebonyi",
      "Ezza North",
      "Ezza South",
      "Ikwo",
      "Ishielu",
      "Ivo",
      "Izzi",
      "Ohaozara",
      "Ohaukwu",
      "Onicha"
    ]
  },
  {
    "Edo": [
      "Akoko-Edo",
      "Egor",
      "Esan Central",
      "Esan North-East",
      "Esan South-East",
      "Esan West",
      "Etsako Central",
      "Etsako East",
      "Etsako West",
      "Igueben",
      "Etsako West",
      "Oredo",
      "Orhionmwon",
      "Ovia North-East",
      "Ovia South-West",
      "Owan East",
      "Owan West",
      "Uhunmwonde"
    ]
  },
  {
    "Ekiti": [
      "Ado-Ekiti",
      "Ikere",
      "Oye",
      "Aiyekire (Gbonyin)",
      "Ekiti East",
      "Efon",
      "Ekiti South-West",
      "Ekiti West",
      "Ekiti West",
      "Ido-Osi",
      "Ijero",
      "Ikole",
      "Ilejemeje",
      "Irepodun/Ifelodun",
      "Ise/Orun",
      "Moba"
    ]
  },
  {
    "Enugu": [
      "Aninri",
      "Awgu",
      "Enugu East",
      "Enugu North",
      "Enugu South",
      "Ezeagu",
      "Igbo Etiti",
      "gbo Eze North",
      "Igbo Eze South",
      "Isi Uzo",
      "Nkanu East",
      "Nkanu West",
      "Nsukka",
      "Oji River",
      "Udenu",
      "Udi",
      "Uzo-Uwani"
    ]
  },
  {
    "Imo": [
      "Aboh Mbaise",
      "Ahiazu Mbaise",
      "Ehime Mbano",
      "Ezinihitte Mbaise",
      "Ideato North",
      "Ideato South",
      "Ihitte/Uboma",
      "Ikeduru",
      "Isiala Mbano",
      "Isu",
      "Mbaitoli",
      "Ngor Okpala",
      "Njaba",
      "Nkwerre",
      "Nwangele",
      "Obowo",
      "Oguta",
      "Ohaji/Egbema",
      "Okigwe",
      "Onuimo",
      "Orlu",
      "Orsu",
      "Oru East",
      "Oru West",
      "Owerri Municipal",
      "Owerri North",
      "Owerri West"
    ]
  },
  {
    "Gombe": [
      "Akko",
      "Balanga",
      "Billiri",
      "Dukku",
      "Funakaye",
      "Gombe",
      "Kaltungo",
      "Kwami",
      "Nafada",
      "Shongom",
      ""
    ]
  },
  {
    "Jigawa": [
      "Auyo",
      "Babura",
      "Biriniwa",
      "Birnin Kudu",
      "Buji",
      "Dutse",
      "Gagarawa",
      "Garki",
      "Gumel",
      "Guri",
      "Gwaram",
      "Gwiwa",
      "Hadejia",
      "Jahun",
      "Kafin Hausa",
      "Kaugama",
      "Kazaure",
      "Kiri Kasama",
      "Kiyawa",
      "Maigatari",
      "Malam Madori",
      "Miga",
      "Ringim",
      "Roni",
      "Sule Tankarkar",
      "Taura",
      "Yankwashi"
    ]
  },
  {
    "Kaduna": [
      "Birnin Gwari",
      "Chikun",
      "Giwa",
      "Igabi",
      "Ikara",
      "Jaba",
      "Jema'a",
      "Kachia",
      "Kaduna North",
      "Kaduna South",
      "Kagarko",
      "Kajuru",
      "Kaura",
      "Kauru",
      "Kubau",
      "Kudan",
      "Kudan",
      "Makarfi",
      "Sabon Gari",
      "Sanga",
      "Soba",
      "Zangon Kataf",
      "Zaria"
    ]
  },
  {
    "Kano": [
      "Fagge",
      "Dala",
      "Gwale",
      "Kano Municipal",
      "Tarauni",
      "Nassarawa",
      "Kumbotso",
      "Ungogo",
      "Dawakin Tofa",
      "Tofa",
      "Rimin Gado",
      "Bagwai",
      "Gezawa",
      "Gabasawa",
      "Minjibir",
      "Dambatta",
      "Makoda",
      "Kunchi",
      "Bichi",
      "Tsanyawa",
      "Shanono",
      "Gwarzo",
      "Karaye",
      "Rogo",
      "Kabo",
      "Bunkure",
      "Kibiya",
      "Rano",
      "Tudun Wada",
      "Doguwa",
      "Madobi",
      "Kura",
      "Garun Mallam",
      "Bebeji",
      "Kiru",
      "Sumaila",
      "Garko",
      "Takai",
      "Takai",
      "Gaya",
      "Ajingi",
      "Wudil",
      "Warawa",
      "Dawakin Kudu"
    ]
  },
  {
    "Kastina": [
      "Bakori",
      "Batagarawa",
      "Batsari",
      "Baure",
      "Bindawa",
      "Charanchi",
      "Dan Musa",
      "Dandume",
      "Danja",
      "Daura",
      "Dutsi",
      "Dutsin-Ma",
      "Faskari",
      "Funtua",
      "Ingawa",
      "Jibia",
      "Kafur",
      "Kaita",
      "Kankara",
      "Kankia",
      "Katsina",
      "Kurfi",
      "Kusada",
      "Mai'Adua",
      "Malumfashi",
      "Mani",
      "Mashi",
      "Matazu",
      "Musawa",
      "Rimi",
      "Sabuwa",
      "Safana",
      "Sandamu",
      "Zango"
    ]
  },
  {
    "Kebbi": [
      "Aleiro",
      "Arewa Dandi",
      "Argungu",
      "Augie",
      "Bagudo",
      "Birnin Kebbi",
      "Bunza",
      "Dandi",
      "Fakai",
      "Gwandu",
      "Jega",
      "Kalgo",
      "Koko/Besse",
      "Maiyama",
      "Ngaski",
      "Sakaba",
      "Shanga",
      "Suru",
      "Danko/Wasagu",
      "Yauri",
      "Zuru"
    ]
  },
  {
    "Kogi": [
      "Adavi",
      "Ajaokuta",
      "Ankpa",
      "Bassa",
      "Dekina",
      "Ibaji",
      "Idah",
      "Igalamela-Odolu",
      "Ijumu",
      "Kabba/Bunu",
      "Koton Karfe",
      "Lokoja",
      "Mopa-Muro",
      "Ofu",
      "Ogori/Magongo",
      "Okehi",
      "Okene",
      "Olamaboro",
      "Omala",
      "Yagba East",
      "Yagba West"

    ]
  },
  {
    "Kwara": [
      "Asa",
      "Baruten",
      "Edu",
      "Ekiti",
      "Ifelodun",
      "Ilorin East",
      "Ilorin South",
      "Ilorin West",
      "Irepodun",
      "Isin",
      "Kaiama",
      "Oke-Ero",
      "Offa",
      "Oyun",
      "Patigi"
    ]
  },
  {
    "Lagos": [
      "Agege",
      "Alimosho",
      "ifako-Ijaye",
      "Ikeja",
      "Kosofe",
      "Mushin",
      "Oshodi-Isolo",
      "Shomolu",
      "Apapa",
      "Eti-Osa",
      "Lagos Island",
      "Lagos Mainland",
      "Surulere",
      "Amuwo-Odofin",
      "Ojo",
      "Badagry",
      "Ikorodu",
      "beju-Lekki",
      "Epe",
      "Epe Division"
    ]
  },
  {
    "Nassarawa": [
      "Karu",
      "Keffi",
      "Kokona",
      "Nasarawa",
      "Toto",
      "Akwanga",
      "Nasarawa Egon",
      "Wamba",
      "Awe",
      "Doma",
      "Keana",
      "Lafia",
      "Obi"
    ]
  },
  {
    "Niger": [
      "Agaie",
      "Agwara",
      "Bida",
      "Borgu",
      "Bosso",
      "Chanchaga",
      "Edati",
      "Gbako",
      "Gurara",
      "Katcha",
      "Kontagora",
      "Lapai",
      "Lavun",
      "Magama",
      "Mariga",
      "Mashegu",
      "Munya",
      "Paikoro",
      "Rafi",
      "Rijau",
      "Shiroro",
      "Suleja",
      "Suleja",
      "Wushishi"
    ]
  },
  {
    "Ogun": [
      "Abeokuta North",
      "Abeokuta South",
      "Ado-Odo/Ota",
      "Ewekoro",
      "ifo",
      "ijebu east",
      "Ijebu North",
      "Ijebu North East",
      "Ijebu Ode",
      "Ikenne",
      "Imeko Afon",
      "Ipokia",
      "Obafemi Owode",
      "Odogbolu",
      "Odeda",
      "Ogun Waterside",
      "Sagamu",
      "Remo North",
      "Yewa North",
      "Yewa South"
    ]
  },
  {
    "Ondo": [
      "Akoko North-East",
      "Akoko North-West",
      "Akoko South-East",
      "Akoko South-West",
      "Akure North",
      "Akure South",
      "Ese Odo",
      "Idanre",
      "Ifedore",
      "Ilaje",
      "Ile Oluji/Okeigbo",
      "Irele",
      "Odigbo",
      "Okitipupa",
      "Ondo East",
      "Ondo West",
      "ose",
      "owo"
    ]
  },
  {
    "Osun": [
      "Aiyedaade",
      "Aiyedire",
      "Atakunmosa East",
      "Atakunmosa West",
      "Boluwaduro",
      "Boripe",
      "Ede North",
      "Ede South",
      "Egbedore",
      "Ejigbo",
      "Ife Central",
      "Ife East",
      "Ife North",
      "Ife South",
      "Ifedayo",
      "Ifelodun",
      "iia",
      "llesa east",
      "illsa west",
      "irepodun",
      "irewole",
      "isokan",
      "iwo",
      "obokun",
      "odo otin",
      "ola oluwa",
      "olorunda",
      "oriade",
      "orolu",
      "osogbo"
    ]
  },
  {
    "Oyo": [
      "ATISBO",
      "EGBEDA",
      "IBADAN NORTH",
      "IBADAN NORTH-EAST",
      "IBADAN NORTH-WEST",
      "IBADAN SOUTH-EAST",
      "IBADAN SOUTHWEST ",
      "IBARAPA CENTRAL",
      "IBARAPA EAST",
      "IBARAPA NORTH",
      "IDO",
      "ISEYIN",
      "ISEYIN",
      "IWAJOWA",
      "KAJOLA",
      "LAGELU",
      "OGBOMOSO NORTH",
      "OGBOMOSO SOUTH",
      "OGBOMOSO SOUTH",
      "OLORUNSOGO",
      "OLUYOLE",
      "ONA-ARA",
      "OORELOPE",
      "SAKI EAST",
      "SAKI WEST",
      "SURULERE",
      "AARE LATOSA LCDA",
      "AFIJIO",
      "AJOROSUN",
      "AKINYELE",
      "AKINYELE",
      "AKINYELE",
      "AKOREDE",
      "ARAROMI",
      "ATISBO",
      "IBADAN EAST",
      "IBADAN SOUTH EAST",
      "IBADAN WEST",
      "IBARAPA NORTH-EAST",
      "IBARAPA NORTH-WEST",
      "IFELOJU",
      "IGANNA",
      "INUKAN",
      "IREPODUN",
      "ISEYIN SOUTH",
      "IWA",
      "LAGELU NORTH",
      "OGBOMOSO CENTRAL",
      "OGBOMOSO SOUTH-WEST",
      "OGO-OLUWA WEST",
      "OKE’BADAN",
      "OMI APATA",
      "SURULERE NORTH",
      "SURULERE SOUTH",
      "WEWE",
      "AFIJIO",
      "ATIBA",
      "ORIIRE NORTH",
      "ORIIRE SOUTH",
      "OYO SOUTH WEST",
      "SORO",
      "ORIIRE",
      "OYO EAST",
      "OYO SOUTH EAST",
      "OYO WEST",
      "IREPO",
      "LAGELU WEST",
      "ASABARI"
    ]
  },
  {
    "Plateau": [
      "Barkin Ladi",
      "Bassa",
      "Bokkos",
      "Jos East",
      "Jos north",
      "Jos south",
      "Kanam",
      "Kanke",
      "Lagtang North",
      "Langtang South",
      "Mangu",
      "Mikang",
      "Pankshin",
      "Qua'an pan",
      "Riyom",
      "Shendam",
      "Wase"
    ]
  },
  {
    "Rivers": [
      "Abua/Odual",
      "Ahoada East",
      "Ahoada West",
      "Akuku Toru",
      "Andoni",
      "Asari-Toru",
      "Bonny",
      "Degema",
      "Emohua",
      "Eleme",
      "Etche",
      "Gokana",
      "Ikwerre",
      "Khana",
      "Obia/Akpo",
      "Ogba/Egbema/Ndoni",
      "Ogu/Bolo",
      "Okrika",
      "Okrika",
      "Opobo/Nkoro",
      "Oyigbo",
      "Port-Harcourt",
      "Tai"
    ]
  },
  {
    "Sokoto": [
      "Binji",
      "Bodinga",
      "Dange Shuni",
      "Gada",
      "Goronyo",
      "Gudu",
      "Gwadabawa",
      "Illela",
      "Isa",
      "Kebbe",
      "Kware",
      "Rabah",
      "Sabon Birni",
      "Shagari",
      "Silame",
      "Sokoto North",
      "Sokoto South",
      "Tambuwal",
      "Tangaza",
      "Tureta",
      "Wamako",
      "Wurno",
      "Yabo"
    ]
  },
  {
    "Taraba": [
      "Ardo Kola",
      "Bali",
      "Donga",
      "Gashaka",
      "Gassol",
      "Ibi",
      "Jalingo",
      "Karim Lamido",
      "Kurmi",
      "Lau",
      "Sardauna",
      "Takum",
      "Ussa",
      "Wukari",
      "Yorro",
      "Zing"
    ]
  },
  {
    "Yobe": [
      "Bade",
      "Bursari",
      "Damaturu",
      "Geidam",
      "Gujba",
      "Gulani",
      "Fika",
      "Fune",
      "Jakusko",
      "Karasuwa",
      "Machina",
      "Nangere",
      "Nguru",
      "Potiskum",
      "Tarmuwa",
      "Yunusari",
      "Yusufari"
    ]
  },
  {
    "Zamfara": [
      "Anka",
      "Bakura",
      "Birnin Magaji/Kiyaw",
      "Bukkuyum",
      "Bungudu",
      "Tsafe",
      "Gummi",
      "Gusau",
      "Kaura Namoda",
      "Maradun",
      "Maru",
      "Shinkafi",
      "Talata Mafara",
      "Zurmi"
    ]
  },
  {
    "FCT": [
      "Gwagwalada",
      "Kuje",
      "Abaji",
      "Abuja Municipal",
      "Bwari",
      "Kwali"

    ]
  }
]