{
    "/js/app.js": "/js/app.js",
    "/css/app.css": "/css/app.css",
    "/css/wawooh.css": "/css/wawooh.css",
    "/css/designerMobile.css": "/css/designerMobile.css",
    "/css/category.css": "/css/category.css",
    "/css/home.css": "/css/home.css",
    "/css/dash/designerdash.css": "/css/dash/designerdash.css",
    "/css/dash/designerShop.css": "/css/dash/designerShop.css",
    "/css/inspire/inspire.css": "/css/inspire/inspire.css",
    "/css/invoice.css": "/css/invoice.css",
    "/css/inspire/timeline.css": "/css/inspire/timeline.css",
    "/css/admin-wawooh.css": "/css/admin-wawooh.css",
    "/css/navbar.css": "/css/navbar.css",
    "/css/events.css": "/css/events.css",
    "/css/user.css": "/css/user.css",
    "/css/others.css": "/css/others.css",
    "/css/coming-soon.css": "/css/coming-soon.css",
    "/css/land.css": "/css/land.css",
    "/css/richtext.css": "/css/richtext.css"
}
